c:\users\mi\desktop\c\◆自学练习◆\95 - caculator计算器案例_多态\debug\vc142.pdb
c:\users\mi\desktop\c\◆自学练习◆\95 - caculator计算器案例_多态\debug\vc142.idb
c:\users\mi\desktop\c\◆自学练习◆\95 - caculator计算器案例_多态\debug\95 - caculator计算器案例_多态.obj
c:\users\mi\desktop\c\◆自学练习◆\95 - caculator计算器案例_多态\debug\95 - caculator计算器案例_多态.ilk
c:\users\mi\desktop\c\◆自学练习◆\95 - caculator计算器案例_多态\debug\95 - caculator计算器案例_多态.exe
c:\users\mi\desktop\c\◆自学练习◆\95 - caculator计算器案例_多态\debug\95 - caculator计算器案例_多态.pdb
c:\users\mi\desktop\c\◆自学练习◆\95 - caculator计算器案例_多态\debug\95 - cac.5655c84b.tlog\cl.command.1.tlog
c:\users\mi\desktop\c\◆自学练习◆\95 - caculator计算器案例_多态\debug\95 - cac.5655c84b.tlog\cl.read.1.tlog
c:\users\mi\desktop\c\◆自学练习◆\95 - caculator计算器案例_多态\debug\95 - cac.5655c84b.tlog\cl.write.1.tlog
c:\users\mi\desktop\c\◆自学练习◆\95 - caculator计算器案例_多态\debug\95 - cac.5655c84b.tlog\link.command.1.tlog
c:\users\mi\desktop\c\◆自学练习◆\95 - caculator计算器案例_多态\debug\95 - cac.5655c84b.tlog\link.read.1.tlog
c:\users\mi\desktop\c\◆自学练习◆\95 - caculator计算器案例_多态\debug\95 - cac.5655c84b.tlog\link.write.1.tlog
