^C:\USERS\MI\DESKTOP\C\◆自学练习◆\38 - 通过指针传递实参的值给函数\DEBUG\38 - 通过指针传递实参的值给函数.OBJ
C:\USERS\MI\DESKTOP\C\◆自学练习◆\38 - 通过指针传递实参的值给函数\DEBUG\38 - 通过指针传递实参的值给函数.EXE
C:\USERS\MI\DESKTOP\C\◆自学练习◆\38 - 通过指针传递实参的值给函数\DEBUG\38 - 通过指针传递实参的值给函数.ILK
C:\USERS\MI\DESKTOP\C\◆自学练习◆\38 - 通过指针传递实参的值给函数\DEBUG\38 - 通过指针传递实参的值给函数.PDB
