^C:\USERS\MI\DESKTOP\CPP\111 - 类模板碰到友元函数_类内实现\DEBUG\111 - 类模板碰到友元函数_类内实现.OBJ
C:\USERS\MI\DESKTOP\CPP\111 - 类模板碰到友元函数_类内实现\DEBUG\111 - 类模板碰到友元函数_类内实现.ILK
C:\USERS\MI\DESKTOP\CPP\111 - 类模板碰到友元函数_类内实现\DEBUG\111 - 类模板碰到友元函数_类内实现.EXE
C:\USERS\MI\DESKTOP\CPP\111 - 类模板碰到友元函数_类内实现\DEBUG\111 - 类模板碰到友元函数_类内实现.PDB
