﻿  81.1 - TEST2_Bap1_判断字符出现次数.cpp
C:\Users\mi\Desktop\CPP\81.1 - TEST2_Bap1_判断字符出现次数\81.1 - TEST2_Bap1_判断字符出现次数.cpp(11,21): warning C4018:  “<”: 有符号/无符号不匹配
  81.1 - TEST2_Bap1_判断字符出现次数.vcxproj -> C:\Users\mi\Desktop\CPP\81.1 - TEST2_Bap1_判断字符出现次数\Debug\81.1 - TEST2_Bap1_判断字符出现次数.exe
