^C:\USERS\MI\DESKTOP\CPP\96.1 - 纯虚析构的继承\DEBUG\96.1 - 纯虚析构的继承.OBJ
C:\USERS\MI\DESKTOP\CPP\96.1 - 纯虚析构的继承\DEBUG\96.1 - 纯虚析构的继承.EXE
C:\USERS\MI\DESKTOP\CPP\96.1 - 纯虚析构的继承\DEBUG\96.1 - 纯虚析构的继承.ILK
C:\USERS\MI\DESKTOP\CPP\96.1 - 纯虚析构的继承\DEBUG\96.1 - 纯虚析构的继承.PDB
