^C:\USERS\MI\DESKTOP\C\◆自学练习◆\58 - 函数指针 - 函数作为另一函数的参数\58 - 函数指针 - 函数作为另一函数的参数.CPP
C:\USERS\MI\DESKTOP\C\◆自学练习◆\58 - 函数指针 - 函数作为另一函数的参数\DEBUG\VC142.PDB
C:\USERS\MI\DESKTOP\C\◆自学练习◆\58 - 函数指针 - 函数作为另一函数的参数\DEBUG\VC142.IDB
C:\USERS\MI\DESKTOP\C\◆自学练习◆\58 - 函数指针 - 函数作为另一函数的参数\DEBUG\58 - 函数指针 - 函数作为另一函数的参数.OBJ
