^C:\USERS\MI\DESKTOP\C\TEST\03-文件输出\DEBUG\源.OBJ
C:\USERS\MI\DESKTOP\C\TEST\03-文件输出\DEBUG\03-文件输出.EXE
C:\USERS\MI\DESKTOP\C\TEST\03-文件输出\DEBUG\03-文件输出.ILK
C:\USERS\MI\DESKTOP\C\TEST\03-文件输出\DEBUG\03-文件输出.PDB
