^C:\USERS\MI\DESKTOP\CPP\131 - 单向链表复习+企业级实验\131 - 单向链表复习+企业级实验.CPP
/c /ZI /JMC /nologo /W3 /WX- /diagnostics:column /sdl /Od /Oy- /D _UNICODE /D UNICODE /Gm- /EHsc /RTC1 /MDd /GS /fp:precise /permissive- /Zc:wchar_t /Zc:forScope /Zc:inline /Fo"DEBUG\\" /Fd"DEBUG\VC142.PDB" /Gd /TP /analyze- /FC C:\USERS\MI\DESKTOP\CPP\131 - 单向链表复习+企业级实验\131 - 单向链表复习+企业级实验.CPP
^C:\USERS\MI\DESKTOP\CPP\131 - 单向链表复习+企业级实验\131 - 单向链表复习.CPP
/c /ZI /JMC /nologo /W3 /WX- /diagnostics:column /sdl /Od /Oy- /D _UNICODE /D UNICODE /Gm- /EHsc /RTC1 /MDd /GS /fp:precise /permissive- /Zc:wchar_t /Zc:forScope /Zc:inline /Fo"DEBUG\\" /Fd"DEBUG\VC142.PDB" /Gd /TP /analyze- /FC C:\USERS\MI\DESKTOP\CPP\131 - 单向链表复习+企业级实验\131 - 单向链表复习.CPP
