^C:\USERS\MI\DESKTOP\CPP\131 - 单向链表复习+企业级实验\131 - 单向链表复习+企业级实验.CPP
C:\USERS\MI\DESKTOP\CPP\131 - 单向链表复习+企业级实验\DEBUG\VC142.PDB
C:\USERS\MI\DESKTOP\CPP\131 - 单向链表复习+企业级实验\DEBUG\VC142.IDB
C:\USERS\MI\DESKTOP\CPP\131 - 单向链表复习+企业级实验\DEBUG\131 - 单向链表复习+企业级实验.OBJ
^C:\USERS\MI\DESKTOP\CPP\131 - 单向链表复习+企业级实验\131 - 单向链表复习.CPP
C:\USERS\MI\DESKTOP\CPP\131 - 单向链表复习+企业级实验\DEBUG\VC142.PDB
C:\USERS\MI\DESKTOP\CPP\131 - 单向链表复习+企业级实验\DEBUG\VC142.IDB
C:\USERS\MI\DESKTOP\CPP\131 - 单向链表复习+企业级实验\DEBUG\131 - 单向链表复习.OBJ
