^C:\USERS\MI\DESKTOP\C\◆自学练习◆\13-指针_学校教案\DEBUG\源.OBJ
C:\USERS\MI\DESKTOP\C\◆自学练习◆\13-指针_学校教案\DEBUG\13-指针_学校教案.EXE
C:\USERS\MI\DESKTOP\C\◆自学练习◆\13-指针_学校教案\DEBUG\13-指针_学校教案.ILK
C:\USERS\MI\DESKTOP\C\◆自学练习◆\13-指针_学校教案\DEBUG\13-指针_学校教案.PDB
