^C:\USERS\MI\DESKTOP\C\◆自学练习◆\52 - ENUM枚举\DEBUG\52 - 枚举.OBJ
C:\USERS\MI\DESKTOP\C\◆自学练习◆\52 - ENUM枚举\DEBUG\52 - 枚举.EXE
C:\USERS\MI\DESKTOP\C\◆自学练习◆\52 - ENUM枚举\DEBUG\52 - 枚举.ILK
C:\USERS\MI\DESKTOP\C\◆自学练习◆\52 - ENUM枚举\DEBUG\52 - 枚举.PDB
