^C:\USERS\MI\DESKTOP\CPP\124 - 标志位_标准IO输入流案例\124 - 标志位_标准IO输入流案例.CPP
C:\USERS\MI\DESKTOP\CPP\124 - 标志位_标准IO输入流案例\DEBUG\VC142.PDB
C:\USERS\MI\DESKTOP\CPP\124 - 标志位_标准IO输入流案例\DEBUG\VC142.IDB
C:\USERS\MI\DESKTOP\CPP\124 - 标志位_标准IO输入流案例\DEBUG\124 - 标志位_标准IO输入流案例.OBJ
