^C:\USERS\MI\DESKTOP\CPP\124 - 标志位_标准IO输入流案例\DEBUG\124 - 标志位_标准IO输入流案例.OBJ
C:\USERS\MI\DESKTOP\CPP\124 - 标志位_标准IO输入流案例\DEBUG\124 - 标志位_标准IO输入流案例.EXE
C:\USERS\MI\DESKTOP\CPP\124 - 标志位_标准IO输入流案例\DEBUG\124 - 标志位_标准IO输入流案例.ILK
C:\USERS\MI\DESKTOP\CPP\124 - 标志位_标准IO输入流案例\DEBUG\124 - 标志位_标准IO输入流案例.PDB
