^C:\USERS\MI\DESKTOP\C\◆自学练习◆\39 - 指针作为函数返回值\39 - 指针作为函数返回值.CPP
C:\USERS\MI\DESKTOP\C\◆自学练习◆\39 - 指针作为函数返回值\DEBUG\VC142.PDB
C:\USERS\MI\DESKTOP\C\◆自学练习◆\39 - 指针作为函数返回值\DEBUG\VC142.IDB
C:\USERS\MI\DESKTOP\C\◆自学练习◆\39 - 指针作为函数返回值\DEBUG\39 - 指针作为函数返回值.OBJ
