^C:\USERS\MI\DESKTOP\C\◆自学练习◆\86 - 继承的引出\DEBUG\86 - 继承的引出.OBJ|C:\USERS\MI\DESKTOP\C\◆自学练习◆\86 - 继承的引出\DEBUG\继承写法（初级）.OBJ
C:\USERS\MI\DESKTOP\C\◆自学练习◆\86 - 继承的引出\DEBUG\86 - 继承的引出.EXE
C:\USERS\MI\DESKTOP\C\◆自学练习◆\86 - 继承的引出\DEBUG\86 - 继承的引出.ILK
C:\USERS\MI\DESKTOP\C\◆自学练习◆\86 - 继承的引出\DEBUG\86 - 继承的引出.PDB
