^C:\USERS\MI\DESKTOP\CPP\3.5 - 打印任意次数任意内容\3.5 - 打印任意次数任意内容.CPP
C:\USERS\MI\DESKTOP\CPP\3.5 - 打印任意次数任意内容\DEBUG\VC142.PDB
C:\USERS\MI\DESKTOP\CPP\3.5 - 打印任意次数任意内容\DEBUG\VC142.IDB
C:\USERS\MI\DESKTOP\CPP\3.5 - 打印任意次数任意内容\DEBUG\3.5 - 打印任意次数任意内容.OBJ
^C:\USERS\MI\DESKTOP\CPP\03.5 - 打印任意次数任意内容\3.5 - 打印任意次数任意内容.CPP
C:\USERS\MI\DESKTOP\CPP\03.5 - 打印任意次数任意内容\DEBUG\VC142.PDB
C:\USERS\MI\DESKTOP\CPP\03.5 - 打印任意次数任意内容\DEBUG\VC142.IDB
C:\USERS\MI\DESKTOP\CPP\03.5 - 打印任意次数任意内容\DEBUG\3.5 - 打印任意次数任意内容.OBJ
