^C:\USERS\MI\DESKTOP\C\◆自学练习◆\16 - 头文件 及 命名空间 NAMESPACE\DEBUG\源.OBJ
C:\USERS\MI\DESKTOP\C\◆自学练习◆\16 - 头文件 及 命名空间 NAMESPACE\DEBUG\16 - 头文件 及 命名空间 NAMESPACE.EXE
C:\USERS\MI\DESKTOP\C\◆自学练习◆\16 - 头文件 及 命名空间 NAMESPACE\DEBUG\16 - 头文件 及 命名空间 NAMESPACE.ILK
C:\USERS\MI\DESKTOP\C\◆自学练习◆\16 - 头文件 及 命名空间 NAMESPACE\DEBUG\16 - 头文件 及 命名空间 NAMESPACE.PDB
