^C:\USERS\MI\DESKTOP\C\◆自学练习◆\70 - THIS指针\DEBUG\70 - THIS指针.OBJ
C:\USERS\MI\DESKTOP\C\◆自学练习◆\70 - THIS指针\DEBUG\70 - THIS指针.EXE
C:\USERS\MI\DESKTOP\C\◆自学练习◆\70 - THIS指针\DEBUG\70 - THIS指针.ILK
C:\USERS\MI\DESKTOP\C\◆自学练习◆\70 - THIS指针\DEBUG\70 - THIS指针.PDB
