^C:\USERS\MI\DESKTOP\C\◆自学练习◆\36 - 指针数组\36 - 指针数组.CPP
C:\USERS\MI\DESKTOP\C\◆自学练习◆\36 - 指针数组\DEBUG\VC142.PDB
C:\USERS\MI\DESKTOP\C\◆自学练习◆\36 - 指针数组\DEBUG\VC142.IDB
C:\USERS\MI\DESKTOP\C\◆自学练习◆\36 - 指针数组\DEBUG\36 - 指针数组.OBJ
