^C:\USERS\MI\DESKTOP\C\06-自动计算公差\自动方差计算\源.CPP
/c /ZI /JMC /nologo /W3 /WX- /diagnostics:column /sdl /Od /Oy- /D _UNICODE /D UNICODE /Gm- /EHsc /RTC1 /MDd /GS /fp:precise /permissive- /Zc:wchar_t /Zc:forScope /Zc:inline /Fo"DEBUG\\" /Fd"DEBUG\VC142.PDB" /Gd /TP /analyze- /FC C:\USERS\MI\DESKTOP\C\06-自动计算公差\自动方差计算\源.CPP
^C:\USERS\MI\DESKTOP\C\◆自学练习◆\06-自动计算公差\自动方差计算\源.CPP
/c /ZI /JMC /nologo /W3 /WX- /diagnostics:column /sdl /Od /Oy- /D _UNICODE /D UNICODE /Gm- /EHsc /RTC1 /MDd /GS /fp:precise /permissive- /Zc:wchar_t /Zc:forScope /Zc:inline /Fo"DEBUG\\" /Fd"DEBUG\VC142.PDB" /Gd /TP /analyze- /FC C:\USERS\MI\DESKTOP\C\◆自学练习◆\06-自动计算公差\自动方差计算\源.CPP
