^C:\USERS\MI\DESKTOP\C\◆自学练习◆\06-自动计算公差\自动方差计算\源.CPP
C:\USERS\MI\DESKTOP\C\◆自学练习◆\06-自动计算公差\自动方差计算\DEBUG\VC142.PDB
C:\USERS\MI\DESKTOP\C\◆自学练习◆\06-自动计算公差\自动方差计算\DEBUG\VC142.IDB
C:\USERS\MI\DESKTOP\C\◆自学练习◆\06-自动计算公差\自动方差计算\DEBUG\源.OBJ
