^C:\USERS\MI\DESKTOP\C\◆自学练习◆\15 - 双冒号全局作用域运算符\15 - 双冒号全局作用域运算符.CPP
C:\USERS\MI\DESKTOP\C\◆自学练习◆\15 - 双冒号全局作用域运算符\DEBUG\VC142.PDB
C:\USERS\MI\DESKTOP\C\◆自学练习◆\15 - 双冒号全局作用域运算符\DEBUG\VC142.IDB
C:\USERS\MI\DESKTOP\C\◆自学练习◆\15 - 双冒号全局作用域运算符\DEBUG\15 - 双冒号全局作用域运算符.OBJ
