^C:\USERS\MI\DESKTOP\CPP\115 - 类型转换_静态类型\115 - 类型转换_静态类型.CPP
C:\USERS\MI\DESKTOP\CPP\115 - 类型转换_静态类型\DEBUG\VC142.PDB
C:\USERS\MI\DESKTOP\CPP\115 - 类型转换_静态类型\DEBUG\VC142.IDB
C:\USERS\MI\DESKTOP\CPP\115 - 类型转换_静态类型\DEBUG\115 - 类型转换_静态类型.OBJ
