^C:\USERS\MI\DESKTOP\C\◆自学练习◆\72 - 常函数-常对象\72 - 常函数-常对象.CPP
C:\USERS\MI\DESKTOP\C\◆自学练习◆\72 - 常函数-常对象\DEBUG\VC142.PDB
C:\USERS\MI\DESKTOP\C\◆自学练习◆\72 - 常函数-常对象\DEBUG\VC142.IDB
C:\USERS\MI\DESKTOP\C\◆自学练习◆\72 - 常函数-常对象\DEBUG\72 - 常函数-常对象.OBJ
