^C:\USERS\MI\DESKTOP\CPP\123 - 编写自己的异常类\DEBUG\123 - 编写自己的异常类.OBJ
C:\USERS\MI\DESKTOP\CPP\123 - 编写自己的异常类\DEBUG\123 - 编写自己的异常类.EXE
C:\USERS\MI\DESKTOP\CPP\123 - 编写自己的异常类\DEBUG\123 - 编写自己的异常类.ILK
C:\USERS\MI\DESKTOP\CPP\123 - 编写自己的异常类\DEBUG\123 - 编写自己的异常类.PDB
