^C:\USERS\MI\DESKTOP\C\TEST\05-STRING 测试\源.CPP
C:\USERS\MI\DESKTOP\C\TEST\05-STRING 测试\DEBUG\VC142.PDB
C:\USERS\MI\DESKTOP\C\TEST\05-STRING 测试\DEBUG\VC142.IDB
C:\USERS\MI\DESKTOP\C\TEST\05-STRING 测试\DEBUG\源.OBJ
