^C:\USERS\MI\DESKTOP\CPP\119 - 捕获自定义异常\119 - 捕获自定义异常.CPP
C:\USERS\MI\DESKTOP\CPP\119 - 捕获自定义异常\DEBUG\VC142.PDB
C:\USERS\MI\DESKTOP\CPP\119 - 捕获自定义异常\DEBUG\VC142.IDB
C:\USERS\MI\DESKTOP\CPP\119 - 捕获自定义异常\DEBUG\119 - 捕获自定义异常.OBJ
