^C:\USERS\MI\DESKTOP\CPP\138 - 括号的就近匹配【栈】\138 - 括号的就近匹配【栈】.CPP
C:\USERS\MI\DESKTOP\CPP\138 - 括号的就近匹配【栈】\DEBUG\VC142.PDB
C:\USERS\MI\DESKTOP\CPP\138 - 括号的就近匹配【栈】\DEBUG\VC142.IDB
C:\USERS\MI\DESKTOP\CPP\138 - 括号的就近匹配【栈】\DEBUG\138 - 括号的就近匹配【栈】.OBJ
