^C:\USERS\MI\DESKTOP\CPP\121 - 异常的多态使用\DEBUG\121 - 异常的多态使用.OBJ
C:\USERS\MI\DESKTOP\CPP\121 - 异常的多态使用\DEBUG\121 - 异常的多态使用.ILK
C:\USERS\MI\DESKTOP\CPP\121 - 异常的多态使用\DEBUG\121 - 异常的多态使用.EXE
C:\USERS\MI\DESKTOP\CPP\121 - 异常的多态使用\DEBUG\121 - 异常的多态使用.PDB
