^C:\USERS\MI\DESKTOP\C\◆自学练习◆\61 - 初始化列表\DEBUG\61 - 初始化列表.OBJ
C:\USERS\MI\DESKTOP\C\◆自学练习◆\61 - 初始化列表\DEBUG\61 - 初始化列表.EXE
C:\USERS\MI\DESKTOP\C\◆自学练习◆\61 - 初始化列表\DEBUG\61 - 初始化列表.ILK
C:\USERS\MI\DESKTOP\C\◆自学练习◆\61 - 初始化列表\DEBUG\61 - 初始化列表.PDB
