^C:\USERS\MI\DESKTOP\CPP\110 - 类模板分文件编写的问题及解决\110 - 类模板分文件编写的问题及解决.CPP
/c /ZI /JMC /nologo /W3 /WX- /diagnostics:column /sdl /Od /Oy- /D _UNICODE /D UNICODE /Gm- /EHsc /RTC1 /MDd /GS /fp:precise /permissive- /Zc:wchar_t /Zc:forScope /Zc:inline /Fo"DEBUG\\" /Fd"DEBUG\VC142.PDB" /Gd /TP /analyze- /FC C:\USERS\MI\DESKTOP\CPP\110 - 类模板分文件编写的问题及解决\110 - 类模板分文件编写的问题及解决.CPP
^C:\USERS\MI\DESKTOP\CPP\110 - 类模板分文件编写的问题及解决\PERSON.CPP
/c /ZI /JMC /nologo /W3 /WX- /diagnostics:column /sdl /Od /Oy- /D _UNICODE /D UNICODE /Gm- /EHsc /RTC1 /MDd /GS /fp:precise /permissive- /Zc:wchar_t /Zc:forScope /Zc:inline /Fo"DEBUG\\" /Fd"DEBUG\VC142.PDB" /Gd /TP /analyze- /FC C:\USERS\MI\DESKTOP\CPP\110 - 类模板分文件编写的问题及解决\PERSON.CPP
