^C:\USERS\MI\DESKTOP\C\◆自学练习◆\57 - 函数指针\DEBUG\57 - 函数指针.OBJ
C:\USERS\MI\DESKTOP\C\◆自学练习◆\57 - 函数指针\DEBUG\57 - 函数指针.EXE
C:\USERS\MI\DESKTOP\C\◆自学练习◆\57 - 函数指针\DEBUG\57 - 函数指针.ILK
C:\USERS\MI\DESKTOP\C\◆自学练习◆\57 - 函数指针\DEBUG\57 - 函数指针.PDB
