^C:\USERS\MI\DESKTOP\C\◆自学练习◆\63 - 类对象作为成员\DEBUG\63 - 类对象作为成员.OBJ
C:\USERS\MI\DESKTOP\C\◆自学练习◆\63 - 类对象作为成员\DEBUG\63 - 类对象作为成员.EXE
C:\USERS\MI\DESKTOP\C\◆自学练习◆\63 - 类对象作为成员\DEBUG\63 - 类对象作为成员.ILK
C:\USERS\MI\DESKTOP\C\◆自学练习◆\63 - 类对象作为成员\DEBUG\63 - 类对象作为成员.PDB
