^C:\USERS\MI\DESKTOP\CPP\112 - 类模板碰到友元函数_类外实现\112 - 类模板碰到友元函数_类外实现.CPP
C:\USERS\MI\DESKTOP\CPP\112 - 类模板碰到友元函数_类外实现\DEBUG\VC142.PDB
C:\USERS\MI\DESKTOP\CPP\112 - 类模板碰到友元函数_类外实现\DEBUG\VC142.IDB
C:\USERS\MI\DESKTOP\CPP\112 - 类模板碰到友元函数_类外实现\DEBUG\112 - 类模板碰到友元函数_类外实现.OBJ
