^C:\USERS\MI\DESKTOP\C\TEST\02-CHAR 字符串读取\源.CPP
C:\USERS\MI\DESKTOP\C\TEST\02-CHAR 字符串读取\DEBUG\VC142.PDB
C:\USERS\MI\DESKTOP\C\TEST\02-CHAR 字符串读取\DEBUG\VC142.IDB
C:\USERS\MI\DESKTOP\C\TEST\02-CHAR 字符串读取\DEBUG\源.OBJ
