^C:\USERS\MI\DESKTOP\C\◆自学练习◆\54 - 打字游戏正经版\DEBUG\54 - 打字游戏.OBJ
C:\USERS\MI\DESKTOP\C\◆自学练习◆\54 - 打字游戏正经版\DEBUG\54 - 打字游戏正经版.ILK
C:\USERS\MI\DESKTOP\C\◆自学练习◆\54 - 打字游戏正经版\DEBUG\54 - 打字游戏正经版.EXE
C:\USERS\MI\DESKTOP\C\◆自学练习◆\54 - 打字游戏正经版\DEBUG\54 - 打字游戏正经版.PDB
