^C:\USERS\MI\DESKTOP\C\◆自学练习◆\62 - 构造函数及调用时机\62 - 构造函数及调用时机.CPP
C:\USERS\MI\DESKTOP\C\◆自学练习◆\62 - 构造函数及调用时机\DEBUG\VC142.PDB
C:\USERS\MI\DESKTOP\C\◆自学练习◆\62 - 构造函数及调用时机\DEBUG\VC142.IDB
C:\USERS\MI\DESKTOP\C\◆自学练习◆\62 - 构造函数及调用时机\DEBUG\62 - 构造函数及调用时机.OBJ
