^C:\USERS\MI\DESKTOP\C\◆自学练习◆\42 - 指针实现 STRCAT 函数\DEBUG\42 - 指针实现 STRCAT 函数.OBJ
C:\USERS\MI\DESKTOP\C\◆自学练习◆\42 - 指针实现 STRCAT 函数\DEBUG\42 - 指针实现 STRCAT 函数.EXE
C:\USERS\MI\DESKTOP\C\◆自学练习◆\42 - 指针实现 STRCAT 函数\DEBUG\42 - 指针实现 STRCAT 函数.ILK
C:\USERS\MI\DESKTOP\C\◆自学练习◆\42 - 指针实现 STRCAT 函数\DEBUG\42 - 指针实现 STRCAT 函数.PDB
