^C:\USERS\MI\DESKTOP\C\◆自学练习◆\51 - UNION共用体\51 - UNION共用体.CPP
C:\USERS\MI\DESKTOP\C\◆自学练习◆\51 - UNION共用体\DEBUG\VC142.PDB
C:\USERS\MI\DESKTOP\C\◆自学练习◆\51 - UNION共用体\DEBUG\VC142.IDB
C:\USERS\MI\DESKTOP\C\◆自学练习◆\51 - UNION共用体\DEBUG\51 - UNION共用体.OBJ
