^C:\USERS\MI\DESKTOP\C\◆自学练习◆\82 - 关系运算符重载\82 - 关系运算符重载.CPP
C:\USERS\MI\DESKTOP\C\◆自学练习◆\82 - 关系运算符重载\DEBUG\VC142.PDB
C:\USERS\MI\DESKTOP\C\◆自学练习◆\82 - 关系运算符重载\DEBUG\VC142.IDB
C:\USERS\MI\DESKTOP\C\◆自学练习◆\82 - 关系运算符重载\DEBUG\82 - 关系运算符重载.OBJ
