^C:\USERS\MI\DESKTOP\C\◆自学练习◆\93 - 菱形继承的概念及问题\93 - 菱形继承的概念及问题.CPP
/c /ZI /JMC /nologo /W3 /WX- /diagnostics:column /sdl /Od /Oy- /D _UNICODE /D UNICODE /Gm- /EHsc /RTC1 /MDd /GS /fp:precise /permissive- /Zc:wchar_t /Zc:forScope /Zc:inline /Fo"DEBUG\\" /Fd"DEBUG\VC142.PDB" /Gd /TP /analyze- /FC C:\USERS\MI\DESKTOP\C\◆自学练习◆\93 - 菱形继承的概念及问题\93 - 菱形继承的概念及问题.CPP
^C:\USERS\MI\DESKTOP\C\◆自学练习◆\93 - 菱形继承的概念及问题\TEXT2.CPP
/c /ZI /JMC /nologo /W3 /WX- /diagnostics:column /sdl /Od /Oy- /D _UNICODE /D UNICODE /Gm- /EHsc /RTC1 /MDd /GS /fp:precise /permissive- /Zc:wchar_t /Zc:forScope /Zc:inline /Fo"DEBUG\\" /Fd"DEBUG\VC142.PDB" /Gd /TP /analyze- /FC C:\USERS\MI\DESKTOP\C\◆自学练习◆\93 - 菱形继承的概念及问题\TEXT2.CPP
^C:\USERS\MI\DESKTOP\C\◆自学练习◆\93 - 菱形继承的概念及问题\TEXT.CPP
/c /ZI /JMC /nologo /W3 /WX- /diagnostics:column /sdl /Od /Oy- /D _UNICODE /D UNICODE /Gm- /EHsc /RTC1 /MDd /GS /fp:precise /permissive- /Zc:wchar_t /Zc:forScope /Zc:inline /Fo"DEBUG\\" /Fd"DEBUG\VC142.PDB" /Gd /TP /analyze- /FC C:\USERS\MI\DESKTOP\C\◆自学练习◆\93 - 菱形继承的概念及问题\TEXT.CPP
