^C:\USERS\MI\DESKTOP\C\◆自学练习◆\56 - 函数名作为入口地址\56 - 函数名作为入口地址.CPP
C:\USERS\MI\DESKTOP\C\◆自学练习◆\56 - 函数名作为入口地址\DEBUG\VC142.PDB
C:\USERS\MI\DESKTOP\C\◆自学练习◆\56 - 函数名作为入口地址\DEBUG\VC142.IDB
C:\USERS\MI\DESKTOP\C\◆自学练习◆\56 - 函数名作为入口地址\DEBUG\56 - 函数名作为入口地址.OBJ
