^C:\USERS\MI\DESKTOP\C\◆自学练习◆\54 - 打字游戏\54 - 打字游戏.CPP
C:\USERS\MI\DESKTOP\C\◆自学练习◆\54 - 打字游戏\DEBUG\VC142.PDB
C:\USERS\MI\DESKTOP\C\◆自学练习◆\54 - 打字游戏\DEBUG\VC142.IDB
C:\USERS\MI\DESKTOP\C\◆自学练习◆\54 - 打字游戏\DEBUG\54 - 打字游戏.OBJ
