^C:\USERS\MI\DESKTOP\C\◆自学练习◆\59 - 静态链表\DEBUG\59 - 静态链表.OBJ
C:\USERS\MI\DESKTOP\C\◆自学练习◆\59 - 静态链表\DEBUG\59 - 静态链表.EXE
C:\USERS\MI\DESKTOP\C\◆自学练习◆\59 - 静态链表\DEBUG\59 - 静态链表.ILK
C:\USERS\MI\DESKTOP\C\◆自学练习◆\59 - 静态链表\DEBUG\59 - 静态链表.PDB
