^C:\USERS\MI\SOURCE\REPOS\45 - 结构体数组\DEBUG\45 - 结构体数组.OBJ
C:\USERS\MI\SOURCE\REPOS\45 - 结构体数组\DEBUG\45 - 结构体数组.ILK
C:\USERS\MI\SOURCE\REPOS\45 - 结构体数组\DEBUG\45 - 结构体数组.EXE
C:\USERS\MI\SOURCE\REPOS\45 - 结构体数组\DEBUG\45 - 结构体数组.PDB
