^C:\USERS\MI\DESKTOP\CPP\118 - 异常的基本处理\118 - 异常的基本处理.CPP
C:\USERS\MI\DESKTOP\CPP\118 - 异常的基本处理\DEBUG\VC142.PDB
C:\USERS\MI\DESKTOP\CPP\118 - 异常的基本处理\DEBUG\VC142.IDB
C:\USERS\MI\DESKTOP\CPP\118 - 异常的基本处理\DEBUG\118 - 异常的基本处理.OBJ
