^C:\USERS\MI\DESKTOP\C\◆自学练习◆\14-二维数组\DEBUG\源.OBJ
C:\USERS\MI\DESKTOP\C\◆自学练习◆\14-二维数组\DEBUG\14-二维数组.EXE
C:\USERS\MI\DESKTOP\C\◆自学练习◆\14-二维数组\DEBUG\14-二维数组.ILK
C:\USERS\MI\DESKTOP\C\◆自学练习◆\14-二维数组\DEBUG\14-二维数组.PDB
