^C:\USERS\MI\DESKTOP\CPP\150 - OOP单向链表功能总结\150 - OOP单向链表功能总结.CPP|C:\USERS\MI\DESKTOP\CPP\150 - OOP单向链表功能总结\OPERATOR.CPP
C:\USERS\MI\DESKTOP\CPP\150 - OOP单向链表功能总结\DEBUG\VC142.PDB
C:\USERS\MI\DESKTOP\CPP\150 - OOP单向链表功能总结\DEBUG\VC142.IDB
C:\USERS\MI\DESKTOP\CPP\150 - OOP单向链表功能总结\DEBUG\OPERATOR.OBJ
C:\USERS\MI\DESKTOP\CPP\150 - OOP单向链表功能总结\DEBUG\150 - OOP单向链表功能总结.OBJ
^C:\USERS\MI\DESKTOP\CPP\150 - OOP单向链表功能总结\OPERATOR.CPP
C:\USERS\MI\DESKTOP\CPP\150 - OOP单向链表功能总结\DEBUG\VC142.PDB
C:\USERS\MI\DESKTOP\CPP\150 - OOP单向链表功能总结\DEBUG\VC142.IDB
C:\USERS\MI\DESKTOP\CPP\150 - OOP单向链表功能总结\DEBUG\OPERATOR.OBJ
^C:\USERS\MI\DESKTOP\CPP\150 - OOP单向链表功能总结\150 - OOP单向链表功能总结.CPP
C:\USERS\MI\DESKTOP\CPP\150 - OOP单向链表功能总结\DEBUG\VC142.PDB
C:\USERS\MI\DESKTOP\CPP\150 - OOP单向链表功能总结\DEBUG\VC142.IDB
C:\USERS\MI\DESKTOP\CPP\150 - OOP单向链表功能总结\DEBUG\150 - OOP单向链表功能总结.OBJ
