^C:\USERS\MI\DESKTOP\C\◆自学练习◆\48 - 堆空间开辟结构体\48 - 堆空间开辟结构体.CPP
C:\USERS\MI\DESKTOP\C\◆自学练习◆\48 - 堆空间开辟结构体\DEBUG\VC142.PDB
C:\USERS\MI\DESKTOP\C\◆自学练习◆\48 - 堆空间开辟结构体\DEBUG\VC142.IDB
C:\USERS\MI\DESKTOP\C\◆自学练习◆\48 - 堆空间开辟结构体\DEBUG\48 - 堆空间开辟结构体.OBJ
