^C:\USERS\MI\DESKTOP\CPP\136 - 栈的顺序存储\136 - 栈的顺序存储.CPP
C:\USERS\MI\DESKTOP\CPP\136 - 栈的顺序存储\DEBUG\VC142.PDB
C:\USERS\MI\DESKTOP\CPP\136 - 栈的顺序存储\DEBUG\VC142.IDB
C:\USERS\MI\DESKTOP\CPP\136 - 栈的顺序存储\DEBUG\136 - 栈的顺序存储.OBJ
