^C:\USERS\MI\DESKTOP\CPP\136 - 栈的顺序存储\DEBUG\136 - 栈的顺序存储.OBJ
C:\USERS\MI\DESKTOP\CPP\136 - 栈的顺序存储\DEBUG\136 - 栈的顺序存储.EXE
C:\USERS\MI\DESKTOP\CPP\136 - 栈的顺序存储\DEBUG\136 - 栈的顺序存储.ILK
C:\USERS\MI\DESKTOP\CPP\136 - 栈的顺序存储\DEBUG\136 - 栈的顺序存储.PDB
