^C:\USERS\MI\DESKTOP\C\◆自学练习◆\73 - 全局函数做友元函数\DEBUG\73 - 全局函数做友元函数.OBJ
C:\USERS\MI\DESKTOP\C\◆自学练习◆\73 - 全局函数做友元函数\DEBUG\73 - 全局函数做友元函数.ILK
C:\USERS\MI\DESKTOP\C\◆自学练习◆\73 - 全局函数做友元函数\DEBUG\73 - 全局函数做友元函数.EXE
C:\USERS\MI\DESKTOP\C\◆自学练习◆\73 - 全局函数做友元函数\DEBUG\73 - 全局函数做友元函数.PDB
