^C:\USERS\MI\DESKTOP\CPP\109 - 类模板类外实现成员函数\109 - 类模板类外实现成员函数.CPP
C:\USERS\MI\DESKTOP\CPP\109 - 类模板类外实现成员函数\DEBUG\VC142.PDB
C:\USERS\MI\DESKTOP\CPP\109 - 类模板类外实现成员函数\DEBUG\VC142.IDB
C:\USERS\MI\DESKTOP\CPP\109 - 类模板类外实现成员函数\DEBUG\109 - 类模板类外实现成员函数.OBJ
