^C:\USERS\MI\DESKTOP\C\◆自学练习◆\64 - EXPLICIT 关键字_防止隐式类型转换\DEBUG\64 - EXPLICIT 关键字_防止隐式类型转换.OBJ
C:\USERS\MI\DESKTOP\C\◆自学练习◆\64 - EXPLICIT 关键字_防止隐式类型转换\DEBUG\64 - EXPLICIT 关键字_防止隐式类型转换.ILK
C:\USERS\MI\DESKTOP\C\◆自学练习◆\64 - EXPLICIT 关键字_防止隐式类型转换\DEBUG\64 - EXPLICIT 关键字_防止隐式类型转换.EXE
C:\USERS\MI\DESKTOP\C\◆自学练习◆\64 - EXPLICIT 关键字_防止隐式类型转换\DEBUG\64 - EXPLICIT 关键字_防止隐式类型转换.PDB
