^C:\USERS\MI\DESKTOP\C\◆自学练习◆\95 - CACULATOR计算器案例_多态\95 - CACULATOR计算器案例_多态.CPP
C:\USERS\MI\DESKTOP\C\◆自学练习◆\95 - CACULATOR计算器案例_多态\DEBUG\VC142.PDB
C:\USERS\MI\DESKTOP\C\◆自学练习◆\95 - CACULATOR计算器案例_多态\DEBUG\VC142.IDB
C:\USERS\MI\DESKTOP\C\◆自学练习◆\95 - CACULATOR计算器案例_多态\DEBUG\95 - CACULATOR计算器案例_多态.OBJ
