^C:\USERS\MI\DESKTOP\C\◆自学练习◆\101 - 函数模板的基本使用\DEBUG\101 - 函数模板的基本使用.OBJ
C:\USERS\MI\DESKTOP\C\◆自学练习◆\101 - 函数模板的基本使用\DEBUG\101 - 函数模板的基本使用.EXE
C:\USERS\MI\DESKTOP\C\◆自学练习◆\101 - 函数模板的基本使用\DEBUG\101 - 函数模板的基本使用.ILK
C:\USERS\MI\DESKTOP\C\◆自学练习◆\101 - 函数模板的基本使用\DEBUG\101 - 函数模板的基本使用.PDB
