^C:\USERS\MI\DESKTOP\C\◆自学练习◆\23 - 面向对象设计案例-立方体案例\源.CPP
C:\USERS\MI\DESKTOP\C\◆自学练习◆\23 - 面向对象设计案例-立方体案例\DEBUG\VC142.PDB
C:\USERS\MI\DESKTOP\C\◆自学练习◆\23 - 面向对象设计案例-立方体案例\DEBUG\VC142.IDB
C:\USERS\MI\DESKTOP\C\◆自学练习◆\23 - 面向对象设计案例-立方体案例\DEBUG\源.OBJ
