^C:\USERS\MI\DESKTOP\C\◆自学练习◆\102 - 案例_函数模板实现CHAR和INT冒泡排序\DEBUG\102 - 案例_函数模板实现CHAR和INT冒泡排序.OBJ
C:\USERS\MI\DESKTOP\C\◆自学练习◆\102 - 案例_函数模板实现CHAR和INT冒泡排序\DEBUG\102 - 案例_函数模板实现CHAR和INT冒泡排序.EXE
C:\USERS\MI\DESKTOP\C\◆自学练习◆\102 - 案例_函数模板实现CHAR和INT冒泡排序\DEBUG\102 - 案例_函数模板实现CHAR和INT冒泡排序.ILK
C:\USERS\MI\DESKTOP\C\◆自学练习◆\102 - 案例_函数模板实现CHAR和INT冒泡排序\DEBUG\102 - 案例_函数模板实现CHAR和INT冒泡排序.PDB
