^C:\USERS\MI\DESKTOP\CPP\130 - 移动构造和拷贝构造（右值引用）\130 - 移动构造和拷贝构造（右值引用）.CPP
C:\USERS\MI\DESKTOP\CPP\130 - 移动构造和拷贝构造（右值引用）\DEBUG\VC142.PDB
C:\USERS\MI\DESKTOP\CPP\130 - 移动构造和拷贝构造（右值引用）\DEBUG\VC142.IDB
C:\USERS\MI\DESKTOP\CPP\130 - 移动构造和拷贝构造（右值引用）\DEBUG\130 - 移动构造和拷贝构造（右值引用）.OBJ
