^C:\USERS\MI\DESKTOP\C\◆自学练习◆\40 - 数组作为函数参数\DEBUG\40 - 数组作为函数参数.OBJ
C:\USERS\MI\DESKTOP\C\◆自学练习◆\40 - 数组作为函数参数\DEBUG\40 - 数组作为函数参数.EXE
C:\USERS\MI\DESKTOP\C\◆自学练习◆\40 - 数组作为函数参数\DEBUG\40 - 数组作为函数参数.ILK
C:\USERS\MI\DESKTOP\C\◆自学练习◆\40 - 数组作为函数参数\DEBUG\40 - 数组作为函数参数.PDB
