^C:\USERS\MI\DESKTOP\C\◆自学练习◆\91 - 继承中静态成员的处理\DEBUG\91 - 继承中静态成员的处理.OBJ
C:\USERS\MI\DESKTOP\C\◆自学练习◆\91 - 继承中静态成员的处理\DEBUG\91 - 继承中静态成员的处理.EXE
C:\USERS\MI\DESKTOP\C\◆自学练习◆\91 - 继承中静态成员的处理\DEBUG\91 - 继承中静态成员的处理.ILK
C:\USERS\MI\DESKTOP\C\◆自学练习◆\91 - 继承中静态成员的处理\DEBUG\91 - 继承中静态成员的处理.PDB
